氏名,生年月日
安達忠彦,1924/08/24
羽田唯衣,1942/12/04
土田節子,1964/12/02
赤坂喜久男,1925/09/25
小室宏,1951/10/29
金子優海人,2012/08/25
織田乙葉,1937/08/05
神保千寛,1996/03/02
若松栄蔵,1966/11/15
海老原咲菜,1998/11/23
三原璃音,2019/07/24
神山銀蔵,1927/11/20
杉原孝雄,1949/09/13
西谷彰,1988/01/20
飯塚心優,1966/08/05
川本静雄,1996/02/20
春日景糸,2008/09/29
山岡千紗,1994/01/10
大石富夫,1984/08/10
井上順子,1940/02/01
香川英俊,1921/05/08
森脇実可,1996/06/20
長沼恵美子,1930/07/29
玉城小夏,1921/07/23
竹原順一,1944/12/23
浅野祐希,1921/10/09
服部更紗,1962/03/22
松岡真実,1983/11/13
阪本直義,1966/11/24
福原陽保,1925/03/24
河崎利平,1996/08/12
谷本俊哉,1942/04/20
笹森遙,1986/02/28
沖三平,1985/09/18
近藤和雄,1944/04/28
南忠雄,1975/11/05
松田清二,1982/09/20
恩田朋香,1963/04/09
中村由実,1981/12/29
熊田節夫,1996/09/21
関泉,1967/03/24
秋山智之,1981/07/20
小玉晃子,1935/11/20
中根稔,1953/06/05
滋賀美佳,1989/06/14
並木等,1978/11/20
吉川達夫,1965/12/18
小森桜,1941/02/03
富田智博,1996/10/05
川合貞,1946/05/30
中村稟,1986/06/23
増田真希人,2014/01/03
大川四郎,1943/10/08
狩野志郎,1998/01/11
小柳笑福,2015/09/09
神田博久,1949/05/02
甲斐一朗,1964/03/19
栗本隆志,1941/04/29
坂野麻里子,1931/09/06
大下敦司,1999/12/31
上山由真,1944/10/20
矢野美佐子,1953/01/21
岩井花奈,1945/08/07
福沢洋晶,1999/01/02
遠山咲菜,1928/08/07
北岡美名子,1991/04/08
花岡善之,1933/06/30
吉永辰也,1968/08/14
影山由佳,1945/12/19
梶理恵子,1989/04/02
熊倉心優,1966/12/07
大島晴彦,1921/04/26
福岡結愛,1937/11/29
渋谷和人,2012/09/15
永野御喜家,1953/05/22
笹原凛花,1965/01/06
鵜飼桜花,1956/03/14
久米冬翔,2013/12/05
長谷和裕,1924/02/17
大崎好男,1938/04/26
関本朋香,1959/12/28
郡司怜,1976/04/03
重田志帆,1955/04/25
中原麻理子,1950/01/14
高崎彩夏,1996/08/07
細野心音,1962/12/04
植村剛,1972/03/11
堀口なつ,2006/03/11
山岡愛翔,1994/09/21
小笠原睦夫,1922/12/28
舟木善次,1944/06/06
安井松男,1988/08/05
上村由衣香,2011/06/24
坂井悠真,2013/08/29
坂元良二,1989/09/03
久米由香里,1948/01/05
北田利雄,1935/11/08
木原賢司,1989/10/14
難波康之,1983/01/29
田川紀幸,1953/07/16
